%YAML 1.1
%TAG !u! tag:unity3d.com,2011:
--- !u!114 &-7893295128165547882
MonoBehaviour:
  m_ObjectHideFlags: 3
  m_CorrespondingSourceObject: {fileID: 0}
  m_PrefabInstance: {fileID: 0}
  m_PrefabAsset: {fileID: 0}
  m_GameObject: {fileID: 0}
  m_Enabled: 1
  m_EditorHideFlags: 0
  m_Script: {fileID: 11500000, guid: 0b2db86121404754db890f4c8dfe81b2, type: 3}
  m_Name: Bloom
  m_EditorClassIdentifier: 
  active: 1
  threshold:
    m_OverrideState: 1
    m_Value: 1
  intensity:
    m_OverrideState: 1
    m_Value: 20
  scatter:
    m_OverrideState: 0
    m_Value: 0.7
  clamp:
    m_OverrideState: 0
    m_Value: 65472
  tint:
    m_OverrideState: 0
    m_Value: {r: 1, g: 1, b: 1, a: 1}
  highQualityFiltering:
    m_OverrideState: 0
    m_Value: 0
  skipIterations:
    m_OverrideState: 0
    m_Value: 1
  dirtTexture:
    m_OverrideState: 0
    m_Value: {fileID: 0}
    dimension: 1
  dirtIntensity:
    m_OverrideState: 0
    m_Value: 0
--- !u!114 &-7011558710299706105
MonoBehaviour:
  m_ObjectHideFlags: 3
  m_CorrespondingSourceObject: {fileID: 0}
  m_PrefabInstance: {fileID: 0}
  m_PrefabAsset: {fileID: 0}
  m_GameObject: {fileID: 0}
  m_Enabled: 1
  m_EditorHideFlags: 0
  m_Script: {fileID: 11500000, guid: 899c54efeace73346a0a16faa3afe726, type: 3}
  m_Name: Vignette
  m_EditorClassIdentifier: 
  active: 1
  color:
    m_OverrideState: 1
    m_Value: {r: 0, g: 0, b: 0, a: 1}
  center:
    m_OverrideState: 1
    m_Value: {x: 0.5, y: 0.5}
  intensity:
    m_OverrideState: 1
    m_Value: 0.414
  smoothness:
    m_OverrideState: 1
    m_Value: 0.4
  rounded:
    m_OverrideState: 1
    m_Value: 0
--- !u!114 &11400000
MonoBehaviour:
  m_ObjectHideFlags: 0
  m_CorrespondingSourceObject: {fileID: 0}
  m_PrefabInstance: {fileID: 0}
  m_PrefabAsset: {fileID: 0}
  m_GameObject: {fileID: 0}
  m_Enabled: 1
  m_EditorHideFlags: 0
  m_Script: {fileID: 11500000, guid: d7fd9488000d3734a9e00ee676215985, type: 3}
  m_Name: SampleSceneProfile
  m_EditorClassIdentifier: 
  components:
  - {fileID: 849379129802519247}
  - {fileID: -7893295128165547882}
  - {fileID: -7011558710299706105}
  - {fileID: 2948260420896966189}
  - {fileID: 7770728697059621704}
  - {fileID: 4366849022188445562}
--- !u!114 &849379129802519247
MonoBehaviour:
  m_ObjectHideFlags: 3
  m_CorrespondingSourceObject: {fileID: 0}
  m_PrefabInstance: {fileID: 0}
  m_PrefabAsset: {fileID: 0}
  m_GameObject: {fileID: 0}
  m_Enabled: 1
  m_EditorHideFlags: 0
  m_Script: {fileID: 11500000, guid: 97c23e3b12dc18c42a140437e53d3951, type: 3}
  m_Name: Tonemapping
  m_EditorClassIdentifier: 
  active: 1
  mode:
    m_OverrideState: 1
    m_Value: 2
--- !u!114 &2948260420896966189
MonoBehaviour:
  m_ObjectHideFlags: 3
  m_CorrespondingSourceObject: {fileID: 0}
  m_PrefabInstance: {fileID: 0}
  m_PrefabAsset: {fileID: 0}
  m_GameObject: {fileID: 0}
  m_Enabled: 1
  m_EditorHideFlags: 0
  m_Script: {fileID: 11500000, guid: 29fa0085f50d5e54f8144f766051a691, type: 3}
  m_Name: FilmGrain
  m_EditorClassIdentifier: 
  active: 1
  type:
    m_OverrideState: 1
    m_Value: 0
  intensity:
    m_OverrideState: 1
    m_Value: 0.82
  response:
    m_OverrideState: 1
    m_Value: 0.8
  texture:
    m_OverrideState: 1
    m_Value: {fileID: 0}
--- !u!114 &4366849022188445562
MonoBehaviour:
  m_ObjectHideFlags: 3
  m_CorrespondingSourceObject: {fileID: 0}
  m_PrefabInstance: {fileID: 0}
  m_PrefabAsset: {fileID: 0}
  m_GameObject: {fileID: 0}
  m_Enabled: 1
  m_EditorHideFlags: 0
  m_Script: {fileID: 11500000, guid: cdfbdbb87d3286943a057f7791b43141, type: 3}
  m_Name: ChannelMixer
  m_EditorClassIdentifier: 
  active: 1
  redOutRedIn:
    m_OverrideState: 1
    m_Value: 100
  redOutGreenIn:
    m_OverrideState: 1
    m_Value: 0
  redOutBlueIn:
    m_OverrideState: 1
    m_Value: 0
  greenOutRedIn:
    m_OverrideState: 1
    m_Value: 0
  greenOutGreenIn:
    m_OverrideState: 1
    m_Value: 100
  greenOutBlueIn:
    m_OverrideState: 1
    m_Value: -28
  blueOutRedIn:
    m_OverrideState: 1
    m_Value: -138
  blueOutGreenIn:
    m_OverrideState: 1
    m_Value: 31
  blueOutBlueIn:
    m_OverrideState: 1
    m_Value: 100
--- !u!114 &7770728697059621704
MonoBehaviour:
  m_ObjectHideFlags: 3
  m_CorrespondingSourceObject: {fileID: 0}
  m_PrefabInstance: {fileID: 0}
  m_PrefabAsset: {fileID: 0}
  m_GameObject: {fileID: 0}
  m_Enabled: 1
  m_EditorHideFlags: 0
  m_Script: {fileID: 11500000, guid: 81180773991d8724ab7f2d216912b564, type: 3}
  m_Name: ChromaticAberration
  m_EditorClassIdentifier: 
  active: 1
  intensity:
    m_OverrideState: 1
    m_Value: 0.18
